{
    "group" : {
        "name" : "Group Name"
    },
    "events" : [
        {
            "name" : "Terrapin Turf",
            "start_at" : "20:00:00",
            "end_at" : "22:00:00",
            "day": "Friday",
            "date" : "April 17, 2015",
            "members" : [
                {
                    "image": "http://image.com/emma.png",
                    "name" : "Emma Watson"
                },
                {
                    "image": "http://image.com/miranda.png",
                    "name": "Miranda Kerr"
                },
                {
                    "image": "http://image.com/kateupton.png",
                    "name": "Kate Upton"
                }
            ]
        },
        {
            "name" : "Alpha Sis Postgame",
            "start_at" : "13:00:00",
            "end_at" : "19:00:00",
            "day": "Friday",
            "date" : "April 19, 2015",
            "members" : [
                {
                    "image": "http://image.com/emma.png",
                    "name" : "Margot Robbie"
                }
            ]
        },
        {
            "name" : null,
            "start_at" : null,
            "end_at" : null,
            "day": null,
            "date" : null,
            "members" : [
                {
                    "image": "http://image.com/jessicaalba.png",
                    "name" : "Margot Robbie"
                }
            ]
        }
    ]
}