{
    "friends" : [{
        "image" : "http://image.com/emma-watson.png",
        "name" : "Emma Watson"
    }, {
        "image" : "http://image.com/miranda-kerr.png",
        "name": "Miranda Kerr"
    }]
}