{
    "people" : [
        {
            "name" : "Emma Watson",
            "image": "http://www.image.com/emmawatson.png"
        },
        {
            "name" : "Miranda Kerr",
            "image": "http://www.image.com/mirandakerr.png"
        }
    ]
}