{
    "likes" : {
        "total_places_liked" : 6,
        "places_liked" : [
            {
                "id" : 1,
                "name" : "Clevelander",
                "address" : "1020 Ocean Dr, Miami Beach, FL 33139",
                "image" : "imageOfCleveland"
            },{
                "id" : 2,
                "name" : "Bailey's Taproom",
                "address" : "1020 Ocean Dr, Miami Beach, FL 33139",
                "image" : "imageOfCleveland"
            },{
                "id" : 3,
                "name" : "Seacrets",
                "address" : "1020 Ocean Dr, Miami Beach, FL 33139",
                "image" : "imageOfCleveland"
            },{
                "id" : 4,
                "name" : "Madison Square Garden",
                "address" : "1020 Ocean Dr, Miami Beach, FL 33139",
                "image" : "imageOfCleveland"
            },{
                "id" : 5,
                "name" : "The Biergarten",
                "address" : "1020 Ocean Dr, Miami Beach, FL 33139",
                "image" : "imageOfCleveland"
            }
        ]
    }
}