{
	"check_ins":
	[{
		"id": 1,
		"image": "https://image.url",
		"name": "Clevelander",
		"time_since": "00:00:03:00"
		},{
		"id": 1,
		"image": "https://image.url",
		"name": "Bailey's Taproom",
		"time_since": "02:00:00:00"
		},{
		"id": 1,
		"image": "https://image.url",
		"name": "Secrets",
		"time_since": "03:00:00:00"
		},{
		"id": 1,
		"image": "https://image.url",
		"name": "Madison Square Garden",
		"time_since": "07:00:00:00"
		},{
		"id": 1,
		"image": "https://image.url",
		"name": "The Biergarten",
		"time_since": "00:00:03:00"
		},{
		"id": 1,
		"image": "https://image.url",
		"name": "Zeppelin Hall",
		"time_since": "48:00:00"
	}]
}