{
	"edit_profile":
	{
		"id": 1,
		"image": "https://image.url",
		"display_name": "NatalieP",
		"first_name": "Natalie",
		"last_name": "Portman",
		"description": "Lorem ipsum ...",
		"is_private": 1,
		"show_full_name": 0,
		"show_plans": 0,
		"show_check_ins": 1
	}	
}